Lab08/controller_tb.vcd
$date
	Mon Jun  9 16:11:04 2025
$end
$version
	Icarus Verilog
$end
$timescale
	1ps
$end
$scope module controller_tb $end
$var wire 16 ! dram_dq_in [15:0] $end
$var wire 16 " read_data [15:0] $end
$var wire 1 # dram_dq_we $end
$var wire 16 $ dram_dq_out [15:0] $end
$var wire 1 % busy $end
$var wire 1 & ack $end
$var wire 1 ' DRAM_WE_N $end
$var wire 1 ( DRAM_UDQM $end
$var wire 1 ) DRAM_RAS_N $end
$var wire 1 * DRAM_LDQM $end
$var wire 16 + DRAM_DQ [15:0] $end
$var wire 1 , DRAM_CS_N $end
$var wire 1 - DRAM_CLK $end
$var wire 1 . DRAM_CKE $end
$var wire 1 / DRAM_CAS_N $end
$var wire 2 0 DRAM_BA [1:0] $end
$var wire 13 1 DRAM_ADDR [12:0] $end
$var parameter 32 2 CLK_PERIOD $end
$var parameter 32 3 INITIALIZATION_CYCLES $end
$var parameter 32 4 INITIALIZATION_NS $end
$var parameter 32 5 SYS_CLK_FREQ $end
$var reg 25 6 addr [24:0] $end
$var reg 1 7 read $end
$var reg 16 8 read_data_reg [15:0] $end
$var reg 1 9 rst_n $end
$var reg 1 : sys_clk $end
$var reg 1 ; write $end
$var reg 16 < write_data [15:0] $end
$scope module u_sdram_ctrl $end
$var wire 25 = addr_i [24:0] $end
$var wire 16 > data_i [15:0] $end
$var wire 1 - dram_clk $end
$var wire 16 ? dram_dq_in [15:0] $end
$var wire 1 7 re_i $end
$var wire 1 : sys_clk $end
$var wire 1 9 sys_rst_n $end
$var wire 1 ; we_i $end
$var wire 1 ' dram_we_n $end
$var wire 1 ) dram_ras_n $end
$var wire 1 , dram_cs_n $end
$var wire 1 / dram_cas_n $end
$var parameter 4 @ ACT $end
$var parameter 4 A BST $end
$var real 1 B CLK_PERIOD $end
$var parameter 4 C DESL $end
$var real 1 D INITIALIZATION_CYCLES $end
$var parameter 32 E INITIALIZATION_NS $end
$var parameter 96 F MEM_SIZE $end
$var parameter 13 G MODE_REGISTER_MODE $end
$var parameter 4 H MRS $end
$var parameter 4 I NOP $end
$var parameter 4 J PRE $end
$var parameter 4 K RD $end
$var parameter 4 L REF $end
$var parameter 32 M SDRAM_ADDR_WIDTH $end
$var parameter 32 N SDRAM_BANK_WIDTH $end
$var parameter 32 O SDRAM_CLK_FREQ $end
$var parameter 32 P SDRAM_COL_WIDTH $end
$var parameter 32 Q SDRAM_ROW_WIDTH $end
$var parameter 32 R SDRAM_WORD_SIZE $end
$var parameter 4 S WRT $end
$var reg 1 & ack_o $end
$var reg 1 T auto_reflesh_en $end
$var reg 1 U auto_reflesh_peding $end
$var reg 1 % busy_o $end
$var reg 4 V command [3:0] $end
$var reg 4 W current_state [3:0] $end
$var reg 16 X data_o [15:0] $end
$var reg 13 Y dram_addr [12:0] $end
$var reg 2 Z dram_ba [1:0] $end
$var reg 1 . dram_cke $end
$var reg 16 [ dram_dq_out [15:0] $end
$var reg 1 # dram_dq_we $end
$var reg 1 * dram_ldqm $end
$var reg 1 ( dram_udqm $end
$var reg 2 \ latency [1:0] $end
$var reg 16 ] read_counter [15:0] $end
$var reg 10 ^ refresh_counter [9:0] $end
$var reg 4 _ state_after_wait [3:0] $end
$var reg 16 ` time_counter [15:0] $end
$var reg 1 a write_operation $end
$upscope $end
$scope task wait_ack $end
$upscope $end
$upscope $end
$enddefinitions $end
$comment Show the parameter values. $end
$dumpall
b100 S
b10000 R
b1010 Q
b1101 P
b111111011010110101101000000 O
b10 N
b1101 M
b1 L
b101 K
b10 J
b111 I
b0 H
b1000100000 G
b100000000000000000000000000 F
b11000011010100000 E
r13297.87234042553 D
b1000 C
r7.52 B
b110 A
b11 @
b111111011010110101101000000 5
b11000011010100000 4
b11011111001101 3
b111 2
$end
#0
$dumpvars
xa
bx `
b0 _
bx ^
bx ]
bx \
b0 [
b0 Z
b0 Y
bx X
b0 W
b1000 V
xU
xT
bz ?
b1010101111001101 >
b0 =
b1010101111001101 <
0;
0:
09
bx 8
07
b0 6
b0 1
b0 0
0/
0.
0-
1,
bz +
0*
0)
0(
0'
0&
0%
b0 $
0#
bx "
bz !
$end
#3000
0T
0U
b0 ^
1-
1:
#6000
0-
0:
#9000
1-
1:
#12000
0-
0:
#14000
19
#15000
b1 W
1-
1:
#18000
1(
1*
1.
0-
0:
#21000
b11 _
b10 W
b11001111110010 `
1-
1:
#24000
0,
1)
1/
1'
b111 V
0-
0:
#27000
b11001111110001 `
1-
1:
#30000
0-
0:
#33000
b11001111110000 `
1-
1:
#36000
0-
0:
#39000
b11001111101111 `
1-
1:
#42000
0-
0:
#45000
b11001111101110 `
1-
1:
#48000
0-
0:
#51000
b11001111101101 `
1-
1:
#54000
0-
0:
#57000
b11001111101100 `
1-
1:
#60000
0-
0:
#63000
b11001111101011 `
1-
1:
#66000
0-
0:
#69000
b11001111101010 `
1-
1:
#72000
0-
0:
#75000
b11001111101001 `
1-
1:
#78000
0-
0:
#81000
b11001111101000 `
1-
1:
#84000
0-
0:
#87000
b11001111100111 `
1-
1:
#90000
0-
0:
#93000
b11001111100110 `
1-
1:
#96000
0-
0:
#99000
b11001111100101 `
1-
1:
#102000
0-
0:
#105000
b11001111100100 `
1-
1:
#108000
0-
0:
#111000
b11001111100011 `
1-
1:
#114000
0-
0:
#117000
b11001111100010 `
1-
1:
#120000
0-
0:
#123000
b11001111100001 `
1-
1:
#126000
0-
0:
#129000
b11001111100000 `
1-
1:
#132000
0-
0:
#135000
b11001111011111 `
1-
1:
#138000
0-
0:
#141000
b11001111011110 `
1-
1:
#144000
0-
0:
#147000
b11001111011101 `
1-
1:
#150000
0-
0:
#153000
b11001111011100 `
1-
1:
#156000
0-
0:
#159000
b11001111011011 `
1-
1:
#162000
0-
0:
#165000
b11001111011010 `
1-
1:
#168000
0-
0:
#171000
b11001111011001 `
1-
1:
#174000
0-
0:
#177000
b11001111011000 `
1-
1:
#180000
0-
0:
#183000
b11001111010111 `
1-
1:
#186000
0-
0:
#189000
b11001111010110 `
1-
1:
#192000
0-
0:
#195000
b11001111010101 `
1-
1:
#198000
0-
0:
#201000
b11001111010100 `
1-
1:
#204000
0-
0:
#207000
b11001111010011 `
1-
1:
#210000
0-
0:
#213000
b11001111010010 `
1-
1:
#216000
0-
0:
#219000
b11001111010001 `
1-
1:
#222000
0-
0:
#225000
b11001111010000 `
1-
1:
#228000
0-
0:
#231000
b11001111001111 `
1-
1:
#234000
0-
0:
#237000
b11001111001110 `
1-
1:
#240000
0-
0:
#243000
b11001111001101 `
1-
1:
#246000
0-
0:
#249000
b11001111001100 `
1-
1:
#252000
0-
0:
#255000
b11001111001011 `
1-
1:
#258000
0-
0:
#261000
b11001111001010 `
1-
1:
#264000
0-
0:
#267000
b11001111001001 `
1-
1:
#270000
0-
0:
#273000
b11001111001000 `
1-
1:
#276000
0-
0:
#279000
b11001111000111 `
1-
1:
#282000
0-
0:
#285000
b11001111000110 `
1-
1:
#288000
0-
0:
#291000
b11001111000101 `
1-
1:
#294000
0-
0:
#297000
b11001111000100 `
1-
1:
#300000
0-
0:
#303000
b11001111000011 `
1-
1:
#306000
0-
0:
#309000
b11001111000010 `
1-
1:
#312000
0-
0:
#315000
b11001111000001 `
1-
1:
#318000
0-
0:
#321000
b11001111000000 `
1-
1:
#324000
0-
0:
#327000
b11001110111111 `
1-
1:
#330000
0-
0:
#333000
b11001110111110 `
1-
1:
#336000
0-
0:
#339000
b11001110111101 `
1-
1:
#342000
0-
0:
#345000
b11001110111100 `
1-
1:
#348000
0-
0:
#351000
b11001110111011 `
1-
1:
#354000
0-
0:
#357000
b11001110111010 `
1-
1:
#360000
0-
0:
#363000
b11001110111001 `
1-
1:
#366000
0-
0:
#369000
b11001110111000 `
1-
1:
#372000
0-
0:
#375000
b11001110110111 `
1-
1:
#378000
0-
0:
#381000
b11001110110110 `
1-
1:
#384000
0-
0:
#387000
b11001110110101 `
1-
1:
#390000
0-
0:
#393000
b11001110110100 `
1-
1:
#396000
0-
0:
#399000
b11001110110011 `
1-
1:
#402000
0-
0:
#405000
b11001110110010 `
1-
1:
#408000
0-
0:
#411000
b11001110110001 `
1-
1:
#414000
0-
0:
#417000
b11001110110000 `
1-
1:
#420000
0-
0:
#423000
b11001110101111 `
1-
1:
#426000
0-
0:
#429000
b11001110101110 `
1-
1:
#432000
0-
0:
#435000
b11001110101101 `
1-
1:
#438000
0-
0:
#441000
b11001110101100 `
1-
1:
#444000
0-
0:
#447000
b11001110101011 `
1-
1:
#450000
0-
0:
#453000
b11001110101010 `
1-
1:
#456000
0-
0:
#459000
b11001110101001 `
1-
1:
#462000
0-
0:
#465000
b11001110101000 `
1-
1:
#468000
0-
0:
#471000
b11001110100111 `
1-
1:
#474000
0-
0:
#477000
b11001110100110 `
1-
1:
#480000
0-
0:
#483000
b11001110100101 `
1-
1:
#486000
0-
0:
#489000
b11001110100100 `
1-
1:
#492000
0-
0:
#495000
b11001110100011 `
1-
1:
#498000
0-
0:
#501000
b11001110100010 `
1-
1:
#504000
0-
0:
#507000
b11001110100001 `
1-
1:
#510000
0-
0:
#513000
b11001110100000 `
1-
1:
#516000
0-
0:
#519000
b11001110011111 `
1-
1:
#522000
0-
0:
#525000
b11001110011110 `
1-
1:
#528000
0-
0:
#531000
b11001110011101 `
1-
1:
#534000
0-
0:
#537000
b11001110011100 `
1-
1:
#540000
0-
0:
#543000
b11001110011011 `
1-
1:
#546000
0-
0:
#549000
b11001110011010 `
1-
1:
#552000
0-
0:
#555000
b11001110011001 `
1-
1:
#558000
0-
0:
#561000
b11001110011000 `
1-
1:
#564000
0-
0:
#567000
b11001110010111 `
1-
1:
#570000
0-
0:
#573000
b11001110010110 `
1-
1:
#576000
0-
0:
#579000
b11001110010101 `
1-
1:
#582000
0-
0:
#585000
b11001110010100 `
1-
1:
#588000
0-
0:
#591000
b11001110010011 `
1-
1:
#594000
0-
0:
#597000
b11001110010010 `
1-
1:
#600000
0-
0:
#603000
b11001110010001 `
1-
1:
#606000
0-
0:
#609000
b11001110010000 `
1-
1:
#612000
0-
0:
#615000
b11001110001111 `
1-
1:
#618000
0-
0:
#621000
b11001110001110 `
1-
1:
#624000
0-
0:
#627000
b11001110001101 `
1-
1:
#630000
0-
0:
#633000
b11001110001100 `
1-
1:
#636000
0-
0:
#639000
b11001110001011 `
1-
1:
#642000
0-
0:
#645000
b11001110001010 `
1-
1:
#648000
0-
0:
#651000
b11001110001001 `
1-
1:
#654000
0-
0:
#657000
b11001110001000 `
1-
1:
#660000
0-
0:
#663000
b11001110000111 `
1-
1:
#666000
0-
0:
#669000
b11001110000110 `
1-
1:
#672000
0-
0:
#675000
b11001110000101 `
1-
1:
#678000
0-
0:
#681000
b11001110000100 `
1-
1:
#684000
0-
0:
#687000
b11001110000011 `
1-
1:
#690000
0-
0:
#693000
b11001110000010 `
1-
1:
#696000
0-
0:
#699000
b11001110000001 `
1-
1:
#702000
0-
0:
#705000
b11001110000000 `
1-
1:
#708000
0-
0:
#711000
b11001101111111 `
1-
1:
#714000
0-
0:
#717000
b11001101111110 `
1-
1:
#720000
0-
0:
#723000
b11001101111101 `
1-
1:
#726000
0-
0:
#729000
b11001101111100 `
1-
1:
#732000
0-
0:
#735000
b11001101111011 `
1-
1:
#738000
0-
0:
#741000
b11001101111010 `
1-
1:
#744000
0-
0:
#747000
b11001101111001 `
1-
1:
#750000
0-
0:
#753000
b11001101111000 `
1-
1:
#756000
0-
0:
#759000
b11001101110111 `
1-
1:
#762000
0-
0:
#765000
b11001101110110 `
1-
1:
#768000
0-
0:
#771000
b11001101110101 `
1-
1:
#774000
0-
0:
#777000
b11001101110100 `
1-
1:
#780000
0-
0:
#783000
b11001101110011 `
1-
1:
#786000
0-
0:
#789000
b11001101110010 `
1-
1:
#792000
0-
0:
#795000
b11001101110001 `
1-
1:
#798000
0-
0:
#801000
b11001101110000 `
1-
1:
#804000
0-
0:
#807000
b11001101101111 `
1-
1:
#810000
0-
0:
#813000
b11001101101110 `
1-
1:
#816000
0-
0:
#819000
b11001101101101 `
1-
1:
#822000
0-
0:
#825000
b11001101101100 `
1-
1:
#828000
0-
0:
#831000
b11001101101011 `
1-
1:
#834000
0-
0:
#837000
b11001101101010 `
1-
1:
#840000
0-
0:
#843000
b11001101101001 `
1-
1:
#846000
0-
0:
#849000
b11001101101000 `
1-
1:
#852000
0-
0:
#855000
b11001101100111 `
1-
1:
#858000
0-
0:
#861000
b11001101100110 `
1-
1:
#864000
0-
0:
#867000
b11001101100101 `
1-
1:
#870000
0-
0:
#873000
b11001101100100 `
1-
1:
#876000
0-
0:
#879000
b11001101100011 `
1-
1:
#882000
0-
0:
#885000
b11001101100010 `
1-
1:
#888000
0-
0:
#891000
b11001101100001 `
1-
1:
#894000
0-
0:
#897000
b11001101100000 `
1-
1:
#900000
0-
0:
#903000
b11001101011111 `
1-
1:
#906000
0-
0:
#909000
b11001101011110 `
1-
1:
#912000
0-
0:
#915000
b11001101011101 `
1-
1:
#918000
0-
0:
#921000
b11001101011100 `
1-
1:
#924000
0-
0:
#927000
b11001101011011 `
1-
1:
#930000
0-
0:
#933000
b11001101011010 `
1-
1:
#936000
0-
0:
#939000
b11001101011001 `
1-
1:
#942000
0-
0:
#945000
b11001101011000 `
1-
1:
#948000
0-
0:
#951000
b11001101010111 `
1-
1:
#954000
0-
0:
#957000
b11001101010110 `
1-
1:
#960000
0-
0:
#963000
b11001101010101 `
1-
1:
#966000
0-
0:
#969000
b11001101010100 `
1-
1:
#972000
0-
0:
#975000
b11001101010011 `
1-
1:
#978000
0-
0:
#981000
b11001101010010 `
1-
1:
#984000
0-
0:
#987000
b11001101010001 `
1-
1:
#990000
0-
0:
#993000
b11001101010000 `
1-
1:
#996000
0-
0:
#999000
b11001101001111 `
1-
1:
#1002000
0-
0:
#1005000
b11001101001110 `
1-
1:
#1008000
0-
0:
#1011000
b11001101001101 `
1-
1:
#1014000
0-
0:
#1017000
b11001101001100 `
1-
1:
#1020000
0-
0:
#1023000
b11001101001011 `
1-
1:
#1026000
0-
0:
#1029000
b11001101001010 `
1-
1:
#1032000
0-
0:
#1035000
b11001101001001 `
1-
1:
#1038000
0-
0:
#1041000
b11001101001000 `
1-
1:
#1044000
0-
0:
#1047000
b11001101000111 `
1-
1:
#1050000
0-
0:
#1053000
b11001101000110 `
1-
1:
#1056000
0-
0:
#1059000
b11001101000101 `
1-
1:
#1062000
0-
0:
#1065000
b11001101000100 `
1-
1:
#1068000
0-
0:
#1071000
b11001101000011 `
1-
1:
#1074000
0-
0:
#1077000
b11001101000010 `
1-
1:
#1080000
0-
0:
#1083000
b11001101000001 `
1-
1:
#1086000
0-
0:
#1089000
b11001101000000 `
1-
1:
#1092000
0-
0:
#1095000
b11001100111111 `
1-
1:
#1098000
0-
0:
#1101000
b11001100111110 `
1-
1:
#1104000
0-
0:
#1107000
b11001100111101 `
1-
1:
#1110000
0-
0:
#1113000
b11001100111100 `
1-
1:
#1116000
0-
0:
#1119000
b11001100111011 `
1-
1:
#1122000
0-
0:
#1125000
b11001100111010 `
1-
1:
#1128000
0-
0:
#1131000
b11001100111001 `
1-
1:
#1134000
0-
0:
#1137000
b11001100111000 `
1-
1:
#1140000
0-
0:
#1143000
b11001100110111 `
1-
1:
#1146000
0-
0:
#1149000
b11001100110110 `
1-
1:
#1152000
0-
0:
#1155000
b11001100110101 `
1-
1:
#1158000
0-
0:
#1161000
b11001100110100 `
1-
1:
#1164000
0-
0:
#1167000
b11001100110011 `
1-
1:
#1170000
0-
0:
#1173000
b11001100110010 `
1-
1:
#1176000
0-
0:
#1179000
b11001100110001 `
1-
1:
#1182000
0-
0:
#1185000
b11001100110000 `
1-
1:
#1188000
0-
0:
#1191000
b11001100101111 `
1-
1:
#1194000
0-
0:
#1197000
b11001100101110 `
1-
1:
#1200000
0-
0:
#1203000
b11001100101101 `
1-
1:
#1206000
0-
0:
#1209000
b11001100101100 `
1-
1:
#1212000
0-
0:
#1215000
b11001100101011 `
1-
1:
#1218000
0-
0:
#1221000
b11001100101010 `
1-
1:
#1224000
0-
0:
#1227000
b11001100101001 `
1-
1:
#1230000
0-
0:
#1233000
b11001100101000 `
1-
1:
#1236000
0-
0:
#1239000
b11001100100111 `
1-
1:
#1242000
0-
0:
#1245000
b11001100100110 `
1-
1:
#1248000
0-
0:
#1251000
b11001100100101 `
1-
1:
#1254000
0-
0:
#1257000
b11001100100100 `
1-
1:
#1260000
0-
0:
#1263000
b11001100100011 `
1-
1:
#1266000
0-
0:
#1269000
b11001100100010 `
1-
1:
#1272000
0-
0:
#1275000
b11001100100001 `
1-
1:
#1278000
0-
0:
#1281000
b11001100100000 `
1-
1:
#1284000
0-
0:
#1287000
b11001100011111 `
1-
1:
#1290000
0-
0:
#1293000
b11001100011110 `
1-
1:
#1296000
0-
0:
#1299000
b11001100011101 `
1-
1:
#1302000
0-
0:
#1305000
b11001100011100 `
1-
1:
#1308000
0-
0:
#1311000
b11001100011011 `
1-
1:
#1314000
0-
0:
#1317000
b11001100011010 `
1-
1:
#1320000
0-
0:
#1323000
b11001100011001 `
1-
1:
#1326000
0-
0:
#1329000
b11001100011000 `
1-
1:
#1332000
0-
0:
#1335000
b11001100010111 `
1-
1:
#1338000
0-
0:
#1341000
b11001100010110 `
1-
1:
#1344000
0-
0:
#1347000
b11001100010101 `
1-
1:
#1350000
0-
0:
#1353000
b11001100010100 `
1-
1:
#1356000
0-
0:
#1359000
b11001100010011 `
1-
1:
#1362000
0-
0:
#1365000
b11001100010010 `
1-
1:
#1368000
0-
0:
#1371000
b11001100010001 `
1-
1:
#1374000
0-
0:
#1377000
b11001100010000 `
1-
1:
#1380000
0-
0:
#1383000
b11001100001111 `
1-
1:
#1386000
0-
0:
#1389000
b11001100001110 `
1-
1:
#1392000
0-
0:
#1395000
b11001100001101 `
1-
1:
#1398000
0-
0:
#1401000
b11001100001100 `
1-
1:
#1404000
0-
0:
#1407000
b11001100001011 `
1-
1:
#1410000
0-
0:
#1413000
b11001100001010 `
1-
1:
#1416000
0-
0:
#1419000
b11001100001001 `
1-
1:
#1422000
0-
0:
#1425000
b11001100001000 `
1-
1:
#1428000
0-
0:
#1431000
b11001100000111 `
1-
1:
#1434000
0-
0:
#1437000
b11001100000110 `
1-
1:
#1440000
0-
0:
#1443000
b11001100000101 `
1-
1:
#1446000
0-
0:
#1449000
b11001100000100 `
1-
1:
#1452000
0-
0:
#1455000
b11001100000011 `
1-
1:
#1458000
0-
0:
#1461000
b11001100000010 `
1-
1:
#1464000
0-
0:
#1467000
b11001100000001 `
1-
1:
#1470000
0-
0:
#1473000
b11001100000000 `
1-
1:
#1476000
0-
0:
#1479000
b11001011111111 `
1-
1:
#1482000
0-
0:
#1485000
b11001011111110 `
1-
1:
#1488000
0-
0:
#1491000
b11001011111101 `
1-
1:
#1494000
0-
0:
#1497000
b11001011111100 `
1-
1:
#1500000
0-
0:
#1503000
b11001011111011 `
1-
1:
#1506000
0-
0:
#1509000
b11001011111010 `
1-
1:
#1512000
0-
0:
#1515000
b11001011111001 `
1-
1:
#1518000
0-
0:
#1521000
b11001011111000 `
1-
1:
#1524000
0-
0:
#1527000
b11001011110111 `
1-
1:
#1530000
0-
0:
#1533000
b11001011110110 `
1-
1:
#1536000
0-
0:
#1539000
b11001011110101 `
1-
1:
#1542000
0-
0:
#1545000
b11001011110100 `
1-
1:
#1548000
0-
0:
#1551000
b11001011110011 `
1-
1:
#1554000
0-
0:
#1557000
b11001011110010 `
1-
1:
#1560000
0-
0:
#1563000
b11001011110001 `
1-
1:
#1566000
0-
0:
#1569000
b11001011110000 `
1-
1:
#1572000
0-
0:
#1575000
b11001011101111 `
1-
1:
#1578000
0-
0:
#1581000
b11001011101110 `
1-
1:
#1584000
0-
0:
#1587000
b11001011101101 `
1-
1:
#1590000
0-
0:
#1593000
b11001011101100 `
1-
1:
#1596000
0-
0:
#1599000
b11001011101011 `
1-
1:
#1602000
0-
0:
#1605000
b11001011101010 `
1-
1:
#1608000
0-
0:
#1611000
b11001011101001 `
1-
1:
#1614000
0-
0:
#1617000
b11001011101000 `
1-
1:
#1620000
0-
0:
#1623000
b11001011100111 `
1-
1:
#1626000
0-
0:
#1629000
b11001011100110 `
1-
1:
#1632000
0-
0:
#1635000
b11001011100101 `
1-
1:
#1638000
0-
0:
#1641000
b11001011100100 `
1-
1:
#1644000
0-
0:
#1647000
b11001011100011 `
1-
1:
#1650000
0-
0:
#1653000
b11001011100010 `
1-
1:
#1656000
0-
0:
#1659000
b11001011100001 `
1-
1:
#1662000
0-
0:
#1665000
b11001011100000 `
1-
1:
#1668000
0-
0:
#1671000
b11001011011111 `
1-
1:
#1674000
0-
0:
#1677000
b11001011011110 `
1-
1:
#1680000
0-
0:
#1683000
b11001011011101 `
1-
1:
#1686000
0-
0:
#1689000
b11001011011100 `
1-
1:
#1692000
0-
0:
#1695000
b11001011011011 `
1-
1:
#1698000
0-
0:
#1701000
b11001011011010 `
1-
1:
#1704000
0-
0:
#1707000
b11001011011001 `
1-
1:
#1710000
0-
0:
#1713000
b11001011011000 `
1-
1:
#1716000
0-
0:
#1719000
b11001011010111 `
1-
1:
#1722000
0-
0:
#1725000
b11001011010110 `
1-
1:
#1728000
0-
0:
#1731000
b11001011010101 `
1-
1:
#1734000
0-
0:
#1737000
b11001011010100 `
1-
1:
#1740000
0-
0:
#1743000
b11001011010011 `
1-
1:
#1746000
0-
0:
#1749000
b11001011010010 `
1-
1:
#1752000
0-
0:
#1755000
b11001011010001 `
1-
1:
#1758000
0-
0:
#1761000
b11001011010000 `
1-
1:
#1764000
0-
0:
#1767000
b11001011001111 `
1-
1:
#1770000
0-
0:
#1773000
b11001011001110 `
1-
1:
#1776000
0-
0:
#1779000
b11001011001101 `
1-
1:
#1782000
0-
0:
#1785000
b11001011001100 `
1-
1:
#1788000
0-
0:
#1791000
b11001011001011 `
1-
1:
#1794000
0-
0:
#1797000
b11001011001010 `
1-
1:
#1800000
0-
0:
#1803000
b11001011001001 `
1-
1:
#1806000
0-
0:
#1809000
b11001011001000 `
1-
1:
#1812000
0-
0:
#1815000
b11001011000111 `
1-
1:
#1818000
0-
0:
#1821000
b11001011000110 `
1-
1:
#1824000
0-
0:
#1827000
b11001011000101 `
1-
1:
#1830000
0-
0:
#1833000
b11001011000100 `
1-
1:
#1836000
0-
0:
#1839000
b11001011000011 `
1-
1:
#1842000
0-
0:
#1845000
b11001011000010 `
1-
1:
#1848000
0-
0:
#1851000
b11001011000001 `
1-
1:
#1854000
0-
0:
#1857000
b11001011000000 `
1-
1:
#1860000
0-
0:
#1863000
b11001010111111 `
1-
1:
#1866000
0-
0:
#1869000
b11001010111110 `
1-
1:
#1872000
0-
0:
#1875000
b11001010111101 `
1-
1:
#1878000
0-
0:
#1881000
b11001010111100 `
1-
1:
#1884000
0-
0:
#1887000
b11001010111011 `
1-
1:
#1890000
0-
0:
#1893000
b11001010111010 `
1-
1:
#1896000
0-
0:
#1899000
b11001010111001 `
1-
1:
#1902000
0-
0:
#1905000
b11001010111000 `
1-
1:
#1908000
0-
0:
#1911000
b11001010110111 `
1-
1:
#1914000
0-
0:
#1917000
b11001010110110 `
1-
1:
#1920000
0-
0:
#1923000
b11001010110101 `
1-
1:
#1926000
0-
0:
#1929000
b11001010110100 `
1-
1:
#1932000
0-
0:
#1935000
b11001010110011 `
1-
1:
#1938000
0-
0:
#1941000
b11001010110010 `
1-
1:
#1944000
0-
0:
#1947000
b11001010110001 `
1-
1:
#1950000
0-
0:
#1953000
b11001010110000 `
1-
1:
#1956000
0-
0:
#1959000
b11001010101111 `
1-
1:
#1962000
0-
0:
#1965000
b11001010101110 `
1-
1:
#1968000
0-
0:
#1971000
b11001010101101 `
1-
1:
#1974000
0-
0:
#1977000
b11001010101100 `
1-
1:
#1980000
0-
0:
#1983000
b11001010101011 `
1-
1:
#1986000
0-
0:
#1989000
b11001010101010 `
1-
1:
#1992000
0-
0:
#1995000
b11001010101001 `
1-
1:
#1998000
0-
0:
#2001000
b11001010101000 `
1-
1:
#2004000
0-
0:
#2007000
b11001010100111 `
1-
1:
#2010000
0-
0:
#2013000
b11001010100110 `
1-
1:
#2016000
0-
0:
#2019000
b11001010100101 `
1-
1:
#2022000
0-
0:
#2025000
b11001010100100 `
1-
1:
#2028000
0-
0:
#2031000
b11001010100011 `
1-
1:
#2034000
0-
0:
#2037000
b11001010100010 `
1-
1:
#2040000
0-
0:
#2043000
b11001010100001 `
1-
1:
#2046000
0-
0:
#2049000
b11001010100000 `
1-
1:
#2052000
0-
0:
#2055000
b11001010011111 `
1-
1:
#2058000
0-
0:
#2061000
b11001010011110 `
1-
1:
#2064000
0-
0:
#2067000
b11001010011101 `
1-
1:
#2070000
0-
0:
#2073000
b11001010011100 `
1-
1:
#2076000
0-
0:
#2079000
b11001010011011 `
1-
1:
#2082000
0-
0:
#2085000
b11001010011010 `
1-
1:
#2088000
0-
0:
#2091000
b11001010011001 `
1-
1:
#2094000
0-
0:
#2097000
b11001010011000 `
1-
1:
#2100000
0-
0:
#2103000
b11001010010111 `
1-
1:
#2106000
0-
0:
#2109000
b11001010010110 `
1-
1:
#2112000
0-
0:
#2115000
b11001010010101 `
1-
1:
#2118000
0-
0:
#2121000
b11001010010100 `
1-
1:
#2124000
0-
0:
#2127000
b11001010010011 `
1-
1:
#2130000
0-
0:
#2133000
b11001010010010 `
1-
1:
#2136000
0-
0:
#2139000
b11001010010001 `
1-
1:
#2142000
0-
0:
#2145000
b11001010010000 `
1-
1:
#2148000
0-
0:
#2151000
b11001010001111 `
1-
1:
#2154000
0-
0:
#2157000
b11001010001110 `
1-
1:
#2160000
0-
0:
#2163000
b11001010001101 `
1-
1:
#2166000
0-
0:
#2169000
b11001010001100 `
1-
1:
#2172000
0-
0:
#2175000
b11001010001011 `
1-
1:
#2178000
0-
0:
#2181000
b11001010001010 `
1-
1:
#2184000
0-
0:
#2187000
b11001010001001 `
1-
1:
#2190000
0-
0:
#2193000
b11001010001000 `
1-
1:
#2196000
0-
0:
#2199000
b11001010000111 `
1-
1:
#2202000
0-
0:
#2205000
b11001010000110 `
1-
1:
#2208000
0-
0:
#2211000
b11001010000101 `
1-
1:
#2214000
0-
0:
#2217000
b11001010000100 `
1-
1:
#2220000
0-
0:
#2223000
b11001010000011 `
1-
1:
#2226000
0-
0:
#2229000
b11001010000010 `
1-
1:
#2232000
0-
0:
#2235000
b11001010000001 `
1-
1:
#2238000
0-
0:
#2241000
b11001010000000 `
1-
1:
#2244000
0-
0:
#2247000
b11001001111111 `
1-
1:
#2250000
0-
0:
#2253000
b11001001111110 `
1-
1:
#2256000
0-
0:
#2259000
b11001001111101 `
1-
1:
#2262000
0-
0:
#2265000
b11001001111100 `
1-
1:
#2268000
0-
0:
#2271000
b11001001111011 `
1-
1:
#2274000
0-
0:
#2277000
b11001001111010 `
1-
1:
#2280000
0-
0:
#2283000
b11001001111001 `
1-
1:
#2286000
0-
0:
#2289000
b11001001111000 `
1-
1:
#2292000
0-
0:
#2295000
b11001001110111 `
1-
1:
#2298000
0-
0:
#2301000
b11001001110110 `
1-
1:
#2304000
0-
0:
#2307000
b11001001110101 `
1-
1:
#2310000
0-
0:
#2313000
b11001001110100 `
1-
1:
#2316000
0-
0:
#2319000
b11001001110011 `
1-
1:
#2322000
0-
0:
#2325000
b11001001110010 `
1-
1:
#2328000
0-
0:
#2331000
b11001001110001 `
1-
1:
#2334000
0-
0:
#2337000
b11001001110000 `
1-
1:
#2340000
0-
0:
#2343000
b11001001101111 `
1-
1:
#2346000
0-
0:
#2349000
b11001001101110 `
1-
1:
#2352000
0-
0:
#2355000
b11001001101101 `
1-
1:
#2358000
0-
0:
#2361000
b11001001101100 `
1-
1:
#2364000
0-
0:
#2367000
b11001001101011 `
1-
1:
#2370000
0-
0:
#2373000
b11001001101010 `
1-
1:
#2376000
0-
0:
#2379000
b11001001101001 `
1-
1:
#2382000
0-
0:
#2385000
b11001001101000 `
1-
1:
#2388000
0-
0:
#2391000
b11001001100111 `
1-
1:
#2394000
0-
0:
#2397000
b11001001100110 `
1-
1:
#2400000
0-
0:
#2403000
b11001001100101 `
1-
1:
#2406000
0-
0:
#2409000
b11001001100100 `
1-
1:
#2412000
0-
0:
#2415000
b11001001100011 `
1-
1:
#2418000
0-
0:
#2421000
b11001001100010 `
1-
1:
#2424000
0-
0:
#2427000
b11001001100001 `
1-
1:
#2430000
0-
0:
#2433000
b11001001100000 `
1-
1:
#2436000
0-
0:
#2439000
b11001001011111 `
1-
1:
#2442000
0-
0:
#2445000
b11001001011110 `
1-
1:
#2448000
0-
0:
#2451000
b11001001011101 `
1-
1:
#2454000
0-
0:
#2457000
b11001001011100 `
1-
1:
#2460000
0-
0:
#2463000
b11001001011011 `
1-
1:
#2466000
0-
0:
#2469000
b11001001011010 `
1-
1:
#2472000
0-
0:
#2475000
b11001001011001 `
1-
1:
#2478000
0-
0:
#2481000
b11001001011000 `
1-
1:
#2484000
0-
0:
#2487000
b11001001010111 `
1-
1:
#2490000
0-
0:
#2493000
b11001001010110 `
1-
1:
#2496000
0-
0:
#2499000
b11001001010101 `
1-
1:
#2502000
0-
0:
#2505000
b11001001010100 `
1-
1:
#2508000
0-
0:
#2511000
b11001001010011 `
1-
1:
#2514000
0-
0:
#2517000
b11001001010010 `
1-
1:
#2520000
0-
0:
#2523000
b11001001010001 `
1-
1:
#2526000
0-
0:
#2529000
b11001001010000 `
1-
1:
#2532000
0-
0:
#2535000
b11001001001111 `
1-
1:
#2538000
0-
0:
#2541000
b11001001001110 `
1-
1:
#2544000
0-
0:
#2547000
b11001001001101 `
1-
1:
#2550000
0-
0:
#2553000
b11001001001100 `
1-
1:
